Place,Name,CyrillicName,Country,BodyweightKg,Bench1Kg,Bench2Kg,Bench3Kg,Bench4Kg,TotalKg,WeightClassKg,Division,Sex,Event,Equipment,Best3BenchKg,BirthYear
1,Igor Starchenko,Ігор Старченко,Україна,63,57.5,62.5,65,,65,67.5,Amateur Teen 13-15,M,B,Raw,65.0,2001
1,Oleksiy Voznik,Олексій Вознік,Україна,59.7,85,90,-92.5,,90,60,Amateur Teen 16-17,M,B,Raw,90.0,1997
1,Stanislaw Kotsaga,,Poland,64.8,80,85,87.5,,87.5,67.5,Amateur Teen 16-17,M,B,Raw,87.5,1998
1,Valentin Desyatov,Валентин Десятов,Україна,72.7,100,105,-110,,105,75,Amateur Teen 16-17,M,B,Raw,105.0,1997
2,Artur Sozinov,Артур Созінов,Україна,69.2,87.5,-92.5,-92.5,,87.5,75,Amateur Teen 16-17,M,B,Raw,87.5,1998
1,Oleksandr Stetsenko,Олександр Стеценко,Україна,86.7,105,115,117.5,,117.5,90,Amateur Teen 16-17,M,B,Raw,117.5,1996
1,Pavlo Perevozchikov,Павло Перевозчиков,Україна,67.5,115,122.50,125,127.50,125,67.5,Amateur Teen 18-19,M,B,Raw,125.0,1994
2,Yaroslav Kalugin,Ярослав Калугін,Україна,65.4,75,80,-85,,80,67.5,Amateur Teen 18-19,M,B,Raw,80.0,1994
1,Volodimir Serdyuk,Володимир Сердюк,Україна,68.5,110,-115,-115,,110,75,Amateur Teen 18-19,M,B,Raw,110.0,1995
2,Vitaliy Reshetnyak,Віталій Решетняк,Україна,73,90,95,100,,100,75,Amateur Teen 18-19,M,B,Raw,100.0,1995
1,Vyacheslav Yakubchak,Вячеслав Якубчак,Україна,88.4,137.50,147.50,152.50,-157.5,152.5,90,Amateur Teen 18-19,M,B,Raw,152.5,1995
2,David Surkov,Давид Сурков,Україна,87.1,-130,130,-135,,130,90,Amateur Teen 18-19,M,B,Raw,130.0,1995
1,Pavlo Yushkevich,Павло Юшкевич,Україна,51.6,82.5,-92.5,,,82.5,52,Amateur Juniors 20-23,M,B,Raw,82.5,1992
1,Alim Lyumanov,Алім Люманов,Україна,56,90,95,-102.5,,95,56,Amateur Juniors 20-23,M,B,Raw,95.0,1990
1,Evgen Tverdokhlib,Євген Твердохліб,Україна,66,-102.5,102.5,107.5,-110,107.5,67.5,Amateur Juniors 20-23,M,B,Raw,107.5,1992
DQ,Oleksandr Petrov,Олександр Петров,Україна,66.8,-145,-145,-145,,,67.5,Amateur Juniors 20-23,M,B,Raw,,1992
1,Dmitro Miroshnichenko,Дмитро Мірошніченко,Україна,74.6,132.5,137.5,-142.5,,137.5,75,Amateur Juniors 20-23,M,B,Raw,137.5,1992
2,Sergiy Chaliy,Сергій Чалий,Україна,74.4,90,-95,95,,95,75,Amateur Juniors 20-23,M,B,Raw,95.0,1993
1,Vitaliy Barikin,Віталій Барикін,Україна,80.1,-135,135,140,-142.5,140,82.5,Amateur Juniors 20-23,M,B,Raw,140.0,1993
1,Mikola Budzish,Микола Будзіш,Україна,88.6,145,-152.5,-152.5,,145,90,Amateur Juniors 20-23,M,B,Raw,145.0,1991
2,Dmitro Chornenkiy,Дмитро Чорненький,Україна,83.4,115,122.5,130,,130,90,Amateur Juniors 20-23,M,B,Raw,130.0,1993
3,Maksim Ribalka,Максим Рибалка,Україна,87.9,120,125,127.5,,127.5,90,Amateur Juniors 20-23,M,B,Raw,127.5,1993
1,Evgen Klochkov,Євген Клочков,Україна,67.4,100,-105,-105,,100,67.5,Amateur Open,M,B,Raw,100.0,1989
1,Oleksiy Prudnikov,Олексій Прудніков,Україна,75,120,125,-127.5,,125,75,Amateur Open,M,B,Raw,125.0,1983
2,Mikhaylo Moshkovich,Михайло Мошкович,Україна,71.1,70,-75,,,70,75,Amateur Open,M,B,Raw,70.0,1984
1,Oleksandr Romashchenko,Олександр Ромащенко,Україна,77.9,140,147.5,-155,,147.5,82.5,Amateur Open,M,B,Raw,147.5,1989
2,Yuriy Pets,Юрій Пець,Україна,78.9,135,-140,140,,140,82.5,Amateur Open,M,B,Raw,140.0,1988
DQ,Andriy Shilo,Андрій Шило,Україна,,,,,,,82.5,Amateur Open,M,B,Raw,,1987
1,Artur Bakanov,Артур Баканов,Україна,87.9,-150,160,-162.5,,160,90,Amateur Open,M,B,Raw,160.0,1989
2,Evgen Fedko,Євген Федько,Україна,88.7,135,145,-150,,145,90,Amateur Open,M,B,Raw,145.0,1980
DQ,Sergiy Maksimenko,Сергій Максименко,Україна,,,,,,,90,Amateur Open,M,B,Raw,,1985
1,Denis Feklistov,Денис Феклістов,Україна,95,130,140,-147.5,,140,100,Amateur Open,M,B,Raw,140.0,1986
2,Valeriy Aboleshev,Валерій Аболешев,Україна,94.2,70,-80,80,,80,100,Amateur Open,M,B,Raw,80.0,1983
1,Evgen Lavrik,Євген Лаврик,Україна,121.4,170,-177.5,177.5,,177.5,125,Amateur Open,M,B,Raw,177.5,1973
1,Andriy Tsetnar,Андрій Цетнар,Україна,81.8,125,-132.5,-132.5,,125,82.5,Amateur Submasters 33-39,M,B,Raw,125.0,1980
1,Sergiy Falchenko,Сергій Фальченко,Україна,89.3,90,95,100,,100,90,Amateur Masters 40-44,M,B,Raw,100.0,1972
1,Evgen Lavrik,Євген Лаврик,Україна,121.4,170,-177.5,177.50,,177.5,125,Amateur Masters 40-44,M,B,Raw,177.5,1973
1,Sergiy Bludov,Сергій Блудов,Україна,84.1,105,-110,115,,115,90,Amateur Masters 45-49,M,B,Raw,115.0,1967
1,Mikola Kots,Микола Коц,Україна,76.4,85,-90,92.5,,92.5,82.5,Amateur Masters 50-54,M,B,Raw,92.5,1960
1,Stanislaw Kotsaga,,Poland,64.8,80,85,87.5,,87.5,67.5,Amateur Military/Fire/Police,M,B,Raw,87.5,1998
DQ,Yana Shishkanova,Яна Шишканова,Україна,,,,,,,56,Amateur Teen 13-15,F,B,Raw,,1999
1,Nataliya Dragunova,Наталія Драгунова,Україна,65.3,30,-35,-35,,30,67.5,Amateur Teen 18-19,F,B,Raw,30.0,1996
1,Darina Kovalova,Дарина Ковальова,Україна,55,45,50,52.50,,52.5,56,Amateur Juniors 20-23,F,B,Raw,52.5,1990
1,Yuliya Bazilevich,Юлія Базилевич,Україна,55.9,50,55,-60,,55,56,Amateur Open,F,B,Raw,55.0,1983
1,Nataliya Mavdrik,Наталія Мавдрик,Україна,62.9,70,72.5,-75,,72.5,67.5,Amateur Open,F,B,Raw,72.5,1984
1,Marina Bilousova,Марина Білоусова,Україна,74.4,70,-75,-75,,70,75,Amateur Open,F,B,Raw,70.0,1989
2,Tetyana Dzhevinska,Тетяна Джевінська,Україна,74.9,57.5,60,-62.5,,60,75,Amateur Open,F,B,Raw,60.0,1984
1,Miroslav Dryagin,Мирослав Дрягін,Україна,66.9,95,100,102.5,,102.5,67.5,Pro Teen 16-17,M,B,Raw,102.5,1997
DQ,Oleg Ogli,Олег Огли,Україна,66.8,-110,-110,-110,,,67.5,Pro Teen 16-17,M,B,Raw,,1996
1,Andriy Trusov,Андрій Трусов,Україна,86.9,95,100,-105,,100,90,Pro Teen 16-17,M,B,Raw,100.0,1997
DQ,Boris Midlik,Борис Мидлик,Україна,,,,,,,75,Pro Teen 18-19,M,B,Raw,,1995
1,Evgen Avramenko,Євген Авраменко,Україна,59.8,115,120,-125,,120,60,Pro Juniors 20-23,M,B,Raw,120.0,1993
1,Mikhaylo Manuilov,Михайло Мануілов,Україна,86.5,115,120,125,,125,90,Pro Juniors 20-23,M,B,Raw,125.0,1993
2,Eldar Efimenko,Ельдар Єфименко,Україна,86.6,120,-125,-127.5,,120,90,Pro Juniors 20-23,M,B,Raw,120.0,1992
DQ,Volodimir Nazarko,Володимир Назарко,Україна,,,,,,,90,Pro Juniors 20-23,M,B,Raw,,1993
1,Evgen Moiseev,Євген Моісєєв,Україна,100,180,-187.5,187.5,,187.5,100,Pro Juniors 20-23,M,B,Raw,187.5,1991
1,Oleksandr Tyurnikov,Олександр Тюрников,Україна,70.1,-110,110,115,117.5,115,75,Pro Open,M,B,Raw,115.0,1983
DQ,Yuriy Bezhinets,Юрій Бежинець,Україна,,,,,,,75,Pro Open,M,B,Raw,,1974
DQ,Yuriy Telichko,Юрій Теличко,Україна,,,,,,,82.5,Pro Open,M,B,Raw,,1988
DQ,Igor Savin,Ігор Савін,Україна,,,,,,,82.5,Pro Open,M,B,Raw,,1987
1,Konstyantin Grabovskiy,Констянтин Грабовський,Україна,88.9,190,200,205,-210,205,90,Pro Open,M,B,Raw,205.0,1976
2,Andriy Kravets,Андрій Кравець,Україна,88.5,-175,175,-180,,175,90,Pro Open,M,B,Raw,175.0,1983
3,Roman Kravchenko,Роман Кравченко,Україна,88.1,-155,165,-175,,165,90,Pro Open,M,B,Raw,165.0,1983
4,Vyacheslav Perekhrest,Вячеслав Перехрест,Україна,90,160,-170,-170,,160,90,Pro Open,M,B,Raw,160.0,1984
5,Kostyantin Avramchuk,Костянтин Аврамчук,Україна,84.9,110,115,-120,,115,90,Pro Open,M,B,Raw,115.0,1988
1,Evgen Moiseev,Євген Моісєєв,Україна,100,180,-187.5,187.5,,187.5,100,Pro Open,M,B,Raw,187.5,1991
2,Dmitro Gak,Дмитро Гак,Україна,98.8,185,-200,-200,,185,100,Pro Open,M,B,Raw,185.0,1983
3,Sergiy Faktulin,Сергій Фактулін,Україна,96.3,165,170,175,-177.5,175,100,Pro Open,M,B,Raw,175.0,1982
DQ,Andriy Mazanovich,Андрій Мазанович,Україна,,,,,,,100,Pro Open,M,B,Raw,,1987
DQ,Pavlo Gaysha,Павло Гайша,Україна,,,,,,,100,Pro Open,M,B,Raw,,1988
1,Oleksandr Varenya,Олександр Вареня,Україна,104,150,-160,,,150,110,Pro Open,M,B,Raw,150.0,1990
DQ,Oleksandr Burda,Олександр Бурда,Україна,,,,,,,110,Pro Open,M,B,Raw,,1988
1,Oleksiy Nagaylik,Олексій Нагайлик,Україна,122,200,-207.5,207.5,,207.5,125,Pro Open,M,B,Raw,207.5,1978
2,Sergiy Shumskiy,Сергій Шумський,Україна,111.1,145,160,-170,,160,125,Pro Open,M,B,Raw,160.0,1985
DQ,Anton Torichenko,Антон Ториченко,Україна,123.3,-200,-200,,,,125,Pro Open,M,B,Raw,,1985
DQ,Andriy Yaremus,Андрій Яремус,Україна,,,,,,,125,Pro Open,M,B,Raw,,1977
DQ,Sergiy Vereshchak,Сергій Верещак,Україна,,,,,,,100,Pro Submasters 33-39,M,B,Raw,,1975
DQ,Valeriy Shevchenko,Валерій Шевченко,Україна,,,,,,,90,Pro Masters 40-44,M,B,Raw,,1969
DQ,Viktor Kochmar,Віктор Кочмар,Україна,,,,,,,155,Pro Masters 40-44,M,B,Raw,,1970
1,Mikhaylo Geenko,Михайло Геєнко,Україна,107.9,160,170,175,,175,110,Pro Masters 50-54,M,B,Raw,175.0,1963
1,Evgen Kurudimov,Євген Курудімов,Україна,98.9,130,-140,-140,,130,100,Pro Masters 55-59,M,B,Raw,130.0,1956
1,Konstyantin Grabovskiy,Констянтин Грабовський,Україна,88.9,190,200,205,-210,205,90,Pro Military/Fire/Police,M,B,Raw,205.0,1976
DQ,Anzhela Movchan,Анжела Мовчан,Україна,,,,,,,48,Pro Teen 16-17,F,B,Raw,,1998
1,Olga Grabovska,Ольга Грабовська,Україна,58.8,42.5,45,-50,,45,60,Pro Open,F,B,Raw,45.0,1976
DQ,Marina Soltanova,Марина Солтанова,Україна,,,,,,,67.5,Pro Open,F,B,Raw,,1985
DQ,Tetyana Shavidze,Тетяна Шавідзе,Україна,,,,,,,67.5,Pro Submasters 33-39,F,B,Raw,,1977
1,Olga Grabovska,Ольга Грабовська,Україна,58.8,42.5,45,-50,,45,60,Pro Military/Fire/Police,F,B,Raw,45.0,1976
1,Artem Sarzhan,Артем Саржан,Україна,74.9,140,-145,-150,,140,75,Amateur Open,M,B,Multi-ply,140.0,1984
1,Andriy Besedin,Андрій Беседін,Україна,78,155,165,-175,,165,82.5,Amateur Open,M,B,Multi-ply,165.0,1984
1,Maksim Trokhimchuk,Максим Трохимчук,Україна,86.7,142.5,-150,-150,,142.5,90,Amateur Open,M,B,Multi-ply,142.5,1991
1,Sergiy Kovalov,Сергій Ковальов,Україна,98.4,225,235,240,,240,100,Amateur Open,M,B,Multi-ply,240.0,1988
1,Denis Kovalov,Денис Ковальов,Україна,97.3,210,220,-225,,220,100,Amateur Submasters 33-39,M,B,Multi-ply,220.0,1978
2,Andriy Goncharov,Андрій Гончаров,Україна,100,200,-210,-210,,200,100,Amateur Submasters 33-39,M,B,Multi-ply,200.0,1981
1,Sergiy Lasitsin,Сергій Ласіцин,Україна,86,180,-190,-190,,180,90,Pro Open,M,B,Multi-ply,180.0,1989
DQ,Yaroslav Timoshenko,Ярослав Тимошенко,Україна,,,,,,,100,Pro Open,M,B,Multi-ply,,1984
DQ,Volodimir Starchenko,Володимир Старченко,Україна,,,,,,,100,Pro Open,M,B,Multi-ply,,1975
1,Andriy Lomnitskiy,Андрій Ломницький,Україна,117.6,-260,260,-275,-275,260,125,Pro Open,M,B,Multi-ply,260.0,1980
DQ,Volodimir Starchenko,Володимир Старченко,Україна,,,,,,,100,Pro Submasters 33-39,M,B,Multi-ply,,1975
DQ,Evgen Pavlov,Євген Павлов,Україна,,,,,,,125,Pro Submasters 33-39,M,B,Multi-ply,,1976
